^C:\USERS\DEBIE\DOCUMENTS\REPOSITORY\ASSIGNMENT\ORDERMANAGER\ORDERMANAGER\PCH.CPP
C:\USERS\DEBIE\DOCUMENTS\REPOSITORY\ASSIGNMENT\ORDERMANAGER\ORDERMANAGER\DEBUG\ORDERMANAGER.PCH
C:\USERS\DEBIE\DOCUMENTS\REPOSITORY\ASSIGNMENT\ORDERMANAGER\ORDERMANAGER\DEBUG\VC141.PDB
C:\USERS\DEBIE\DOCUMENTS\REPOSITORY\ASSIGNMENT\ORDERMANAGER\ORDERMANAGER\DEBUG\VC141.IDB
C:\USERS\DEBIE\DOCUMENTS\REPOSITORY\ASSIGNMENT\ORDERMANAGER\ORDERMANAGER\DEBUG\PCH.OBJ
^C:\USERS\DEBIE\DOCUMENTS\REPOSITORY\ASSIGNMENT\ORDERMANAGER\ORDERMANAGER\MAIN.CPP|C:\USERS\DEBIE\DOCUMENTS\REPOSITORY\ASSIGNMENT\ORDERMANAGER\ORDERMANAGER\MANAGER.CPP|C:\USERS\DEBIE\DOCUMENTS\REPOSITORY\ASSIGNMENT\ORDERMANAGER\ORDERMANAGER\SQLMANAGER.CPP
C:\USERS\DEBIE\DOCUMENTS\REPOSITORY\ASSIGNMENT\ORDERMANAGER\ORDERMANAGER\DEBUG\VC141.PDB
C:\USERS\DEBIE\DOCUMENTS\REPOSITORY\ASSIGNMENT\ORDERMANAGER\ORDERMANAGER\DEBUG\VC141.IDB
C:\USERS\DEBIE\DOCUMENTS\REPOSITORY\ASSIGNMENT\ORDERMANAGER\ORDERMANAGER\DEBUG\SQLMANAGER.OBJ
C:\USERS\DEBIE\DOCUMENTS\REPOSITORY\ASSIGNMENT\ORDERMANAGER\ORDERMANAGER\DEBUG\MANAGER.OBJ
C:\USERS\DEBIE\DOCUMENTS\REPOSITORY\ASSIGNMENT\ORDERMANAGER\ORDERMANAGER\DEBUG\MAIN.OBJ
^C:\USERS\DEBIE\DOCUMENTS\REPOSITORY\ASSIGNMENT\ORDERMANAGER\ORDERMANAGER\CUSTOMER.CPP|C:\USERS\DEBIE\DOCUMENTS\REPOSITORY\ASSIGNMENT\ORDERMANAGER\ORDERMANAGER\MAIN.CPP|C:\USERS\DEBIE\DOCUMENTS\REPOSITORY\ASSIGNMENT\ORDERMANAGER\ORDERMANAGER\MANAGER.CPP|C:\USERS\DEBIE\DOCUMENTS\REPOSITORY\ASSIGNMENT\ORDERMANAGER\ORDERMANAGER\ORDER.CPP|C:\USERS\DEBIE\DOCUMENTS\REPOSITORY\ASSIGNMENT\ORDERMANAGER\ORDERMANAGER\PRODUCT.CPP|C:\USERS\DEBIE\DOCUMENTS\REPOSITORY\ASSIGNMENT\ORDERMANAGER\ORDERMANAGER\SQLMANAGER.CPP
C:\USERS\DEBIE\DOCUMENTS\REPOSITORY\ASSIGNMENT\ORDERMANAGER\ORDERMANAGER\DEBUG\VC141.PDB
C:\USERS\DEBIE\DOCUMENTS\REPOSITORY\ASSIGNMENT\ORDERMANAGER\ORDERMANAGER\DEBUG\VC141.IDB
C:\USERS\DEBIE\DOCUMENTS\REPOSITORY\ASSIGNMENT\ORDERMANAGER\ORDERMANAGER\DEBUG\SQLMANAGER.OBJ
C:\USERS\DEBIE\DOCUMENTS\REPOSITORY\ASSIGNMENT\ORDERMANAGER\ORDERMANAGER\DEBUG\PRODUCT.OBJ
C:\USERS\DEBIE\DOCUMENTS\REPOSITORY\ASSIGNMENT\ORDERMANAGER\ORDERMANAGER\DEBUG\ORDER.OBJ
C:\USERS\DEBIE\DOCUMENTS\REPOSITORY\ASSIGNMENT\ORDERMANAGER\ORDERMANAGER\DEBUG\MANAGER.OBJ
C:\USERS\DEBIE\DOCUMENTS\REPOSITORY\ASSIGNMENT\ORDERMANAGER\ORDERMANAGER\DEBUG\MAIN.OBJ
C:\USERS\DEBIE\DOCUMENTS\REPOSITORY\ASSIGNMENT\ORDERMANAGER\ORDERMANAGER\DEBUG\CUSTOMER.OBJ
^C:\USERS\DEBIE\DOCUMENTS\REPOSITORY\ASSIGNMENT\ORDERMANAGER\ORDERMANAGER\CUSTOMER.CPP
C:\USERS\DEBIE\DOCUMENTS\REPOSITORY\ASSIGNMENT\ORDERMANAGER\ORDERMANAGER\DEBUG\VC141.PDB
^C:\USERS\DEBIE\DOCUMENTS\REPOSITORY\ASSIGNMENT\ORDERMANAGER\ORDERMANAGER\MAIN.CPP
C:\USERS\DEBIE\DOCUMENTS\REPOSITORY\ASSIGNMENT\ORDERMANAGER\ORDERMANAGER\DEBUG\VC141.PDB
^C:\USERS\DEBIE\DOCUMENTS\REPOSITORY\ASSIGNMENT\ORDERMANAGER\ORDERMANAGER\MANAGER.CPP
C:\USERS\DEBIE\DOCUMENTS\REPOSITORY\ASSIGNMENT\ORDERMANAGER\ORDERMANAGER\DEBUG\VC141.PDB
^C:\USERS\DEBIE\DOCUMENTS\REPOSITORY\ASSIGNMENT\ORDERMANAGER\ORDERMANAGER\ORDER.CPP
C:\USERS\DEBIE\DOCUMENTS\REPOSITORY\ASSIGNMENT\ORDERMANAGER\ORDERMANAGER\DEBUG\VC141.PDB
^C:\USERS\DEBIE\DOCUMENTS\REPOSITORY\ASSIGNMENT\ORDERMANAGER\ORDERMANAGER\PRODUCT.CPP
C:\USERS\DEBIE\DOCUMENTS\REPOSITORY\ASSIGNMENT\ORDERMANAGER\ORDERMANAGER\DEBUG\VC141.PDB
^C:\USERS\DEBIE\DOCUMENTS\REPOSITORY\ASSIGNMENT\ORDERMANAGER\ORDERMANAGER\SQLMANAGER.CPP
C:\USERS\DEBIE\DOCUMENTS\REPOSITORY\ASSIGNMENT\ORDERMANAGER\ORDERMANAGER\DEBUG\VC141.PDB
C:\USERS\DEBIE\DOCUMENTS\REPOSITORY\ASSIGNMENT\ORDERMANAGER\ORDERMANAGER\DEBUG\VC141.IDB
C:\USERS\DEBIE\DOCUMENTS\REPOSITORY\ASSIGNMENT\ORDERMANAGER\ORDERMANAGER\DEBUG\SQLMANAGER.OBJ
